<svg width="32" height="24" viewBox="0 0 32 24" fill="none" xmlns="http://www.w3.org/2000/svg">
<rect y="0.571533" width="32" height="22.8571" rx="4" fill="white"/>
<mask id="mask0_800_28974" style="mask-type:alpha" maskUnits="userSpaceOnUse" x="0" y="0" width="32" height="24">
<rect y="0.571533" width="32" height="22.8571" rx="4" fill="white"/>
</mask>
<g mask="url(#mask0_800_28974)">
<rect y="0.571533" width="32" height="22.8571" fill="#0A17A7"/>
<path fill-rule="evenodd" clip-rule="evenodd" d="M-1.46571 -1.61865L12.1904 7.59254V-0.952238H19.8095V7.59254L33.4656 -1.61865L35.1699 0.907938L24.3728 8.19062H32V15.8097H24.3728L35.1699 23.0923L33.4656 25.6189L19.8095 16.4077V24.9525H12.1904V16.4077L-1.46571 25.6189L-3.16992 23.0923L7.6271 15.8097H-3.60012e-05V8.19062H7.6271L-3.16992 0.907938L-1.46571 -1.61865Z" fill="white"/>
<path d="M21.335 7.8084L35.8097 -1.71411" stroke="#DB1F35" stroke-width="1.33333" stroke-linecap="round"/>
<path d="M22.8716 16.2258L35.8474 24.9719" stroke="#DB1F35" stroke-width="1.33333" stroke-linecap="round"/>
<path d="M9.14913 7.78352L-4.38574 -1.33813" stroke="#DB1F35" stroke-width="1.33333" stroke-linecap="round"/>
<path d="M10.6171 16.1199L-4.38574 26.0691" stroke="#DB1F35" stroke-width="1.33333" stroke-linecap="round"/>
<path fill-rule="evenodd" clip-rule="evenodd" d="M0 14.2858H13.7143V23.4287H18.2857V14.2858H32V9.71439H18.2857V0.571533H13.7143V9.71439H0V14.2858Z" fill="#E6273E"/>
</g>
</svg>
