<svg width="292" height="229" viewBox="0 0 292 229" fill="none" xmlns="http://www.w3.org/2000/svg">
<circle cx="340.014" cy="17.1278" r="164.409" transform="rotate(69.8478 340.014 17.1278)" fill="url(#paint0_linear_940_35829)"/>
<circle cx="193.726" cy="-34.274" r="164.409" transform="rotate(11.4284 193.726 -34.274)" fill="url(#paint1_linear_940_35829)"/>
<defs>
<linearGradient id="paint0_linear_940_35829" x1="400.298" y1="-439.107" x2="340.015" y2="181.537" gradientUnits="userSpaceOnUse">
<stop stop-color="white"/>
<stop offset="1" stop-color="white" stop-opacity="0"/>
</linearGradient>
<linearGradient id="paint1_linear_940_35829" x1="254.009" y1="-490.509" x2="193.726" y2="130.135" gradientUnits="userSpaceOnUse">
<stop stop-color="white"/>
<stop offset="1" stop-color="white" stop-opacity="0"/>
</linearGradient>
</defs>
</svg>
