<svg width="32" height="24" viewBox="0 0 32 24" fill="none" xmlns="http://www.w3.org/2000/svg">
<rect x="0.5" y="1.07153" width="31" height="21.8571" rx="3.5" fill="white" stroke="#F5F5F5"/>
<mask id="mask0_800_28928" style="mask-type:alpha" maskUnits="userSpaceOnUse" x="0" y="0" width="32" height="24">
<rect x="0.5" y="1.07153" width="31" height="21.8571" rx="3.5" fill="white" stroke="white"/>
</mask>
<g mask="url(#mask0_800_28928)">
<path fill-rule="evenodd" clip-rule="evenodd" d="M0 8.19058H32V0.571533H0V8.19058Z" fill="#CA2B39"/>
<path fill-rule="evenodd" clip-rule="evenodd" d="M0 23.4286H32V15.8096H0V23.4286Z" fill="#2C56A2"/>
</g>
</svg>
