<svg width="20" height="20" viewBox="0 0 20 20" fill="none" xmlns="http://www.w3.org/2000/svg">
<rect width="20" height="20" rx="10" fill="#951D81"/>
<path d="M15.6445 5.82808C15.178 5.43705 14.337 5.34656 13.8832 5.82808C12.0691 7.75316 10.2549 9.67823 8.44082 11.6033C7.66474 10.7391 6.88865 9.87494 6.11256 9.01076C5.69772 8.54883 4.77564 8.58864 4.35125 9.01076C3.85781 9.50156 3.90872 10.1262 4.35125 10.619C5.41382 11.8022 6.47639 12.9853 7.53895 14.1685C7.94438 14.62 8.89283 14.6009 9.30028 14.1685C11.1521 12.2034 13.004 10.2383 14.8559 8.27314C15.1188 7.99419 15.3816 7.71524 15.6445 7.43629C16.0691 6.98577 16.1655 6.26476 15.6445 5.82808Z" fill="white"/>
</svg>
